Started at: 2019-09-21T16:44:45.283
#############
#
# Loading
#
#############

# Found pack: ./mods/buildcraft-all-7.99.24.2.jar

Found script: buildcraftlib/compat/buildcraft/book.txt

Found script: buildcraftcore/compat/buildcraft/book.txt

#############
#
# Executing
#
#############

Adding buildcraftlib:meta as GuideBook [ buildcraftlib:meta, title = TranslatableComponent{key='buildcraft.guide.book.meta.name', args=[], siblings=[], style=Style{hasParent=false, color=null, bold=null, italic=null, underlined=null, obfuscated=null, clickEvent=null, hoverEvent=null, insertion=null}} ]
Adding buildcraftcore:main as GuideBook [ buildcraftcore:main, title = TranslatableComponent{key='item.buildcraft.guide.name', args=[], siblings=[], style=Style{hasParent=false, color=null, bold=null, italic=null, underlined=null, obfuscated=null, clickEvent=null, hoverEvent=null, insertion=null}} ]
Finished at: 2019-09-21T16:44:45.343, took 61ms
